{
    "fluentMethods": true,
    "relationships": [
        {
            "relationshipName": "atencion",
            "otherEntityName": "atencion",
            "relationshipType": "many-to-one",
            "otherEntityField": "id"
        },
        {
            "relationshipName": "discap",
            "otherEntityName": "discap",
            "relationshipType": "many-to-one",
            "otherEntityField": "id"
        }
    ],
    "fields": [
        {
            "fieldName": "nUsuareg",
            "fieldType": "Integer",
            "fieldValidateRules": [
                "required"
            ]
        },
        {
            "fieldName": "tFecreg",
            "fieldType": "Instant",
            "fieldValidateRules": [
                "required"
            ]
        },
        {
            "fieldName": "nFlgactivo",
            "fieldType": "Boolean",
            "fieldValidateRules": [
                "required"
            ]
        },
        {
            "fieldName": "nSedereg",
            "fieldType": "Integer",
            "fieldValidateRules": [
                "required"
            ]
        },
        {
            "fieldName": "nUsuaupd",
            "fieldType": "Integer"
        },
        {
            "fieldName": "tFecupd",
            "fieldType": "Instant"
        },
        {
            "fieldName": "nSedeupd",
            "fieldType": "Integer"
        }
    ],
    "changelogDate": "20171122141246",
    "entityTableName": "discapate",
    "dto": "no",
    "pagination": "no",
    "service": "no",
    "jpaMetamodelFiltering": false,
    "microserviceName": "CONSULTAS"
}