{
    "fluentMethods": true,
    "relationships": [
        {
            "relationshipType": "one-to-many",
            "relationshipName": "atencion",
            "otherEntityName": "atencion",
            "otherEntityRelationshipName": "oficina"
        },
        {
            "relationshipType": "one-to-many",
            "relationshipName": "motatenofic",
            "otherEntityName": "motatenofic",
            "otherEntityRelationshipName": "oficina"
        },
        {
            "relationshipType": "one-to-many",
            "relationshipName": "pasegl",
            "otherEntityName": "pasegl",
            "otherEntityRelationshipName": "oficina"
        }
    ],
    "fields": [
        {
            "fieldName": "vDesofic",
            "fieldType": "String",
            "fieldValidateRules": [
                "required",
                "maxlength"
            ],
            "fieldValidateRulesMaxlength": 200
        },
        {
            "fieldName": "nUsuareg",
            "fieldType": "Integer",
            "fieldValidateRules": [
                "required"
            ]
        },
        {
            "fieldName": "tFecreg",
            "fieldType": "Instant",
            "fieldValidateRules": [
                "required"
            ]
        },
        {
            "fieldName": "nFlgactivo",
            "fieldType": "Boolean",
            "fieldValidateRules": [
                "required"
            ]
        },
        {
            "fieldName": "nSedereg",
            "fieldType": "Integer",
            "fieldValidateRules": [
                "required"
            ]
        },
        {
            "fieldName": "nUsuaupd",
            "fieldType": "Integer"
        },
        {
            "fieldName": "tFecupd",
            "fieldType": "Instant"
        },
        {
            "fieldName": "nSedeupd",
            "fieldType": "Integer"
        }
    ],
    "changelogDate": "20171122141302",
    "entityTableName": "oficina",
    "dto": "no",
    "pagination": "no",
    "service": "no",
    "jpaMetamodelFiltering": false,
    "microserviceName": "CONSULTAS"
}